<svg width="28" height="28" viewBox="0 0 28 28" fill="none" xmlns="http://www.w3.org/2000/svg">
<path d="M16.8179 3.94512L15.6275 2.27845C14.8298 1.16176 13.1702 1.16176 12.3725 2.27845L11.1821 3.94512C10.7609 4.53471 10.0538 4.85043 9.33373 4.77041L6.68471 4.47608C5.41088 4.33454 4.33454 5.41088 4.47608 6.68471L4.77041 9.33372C4.85043 10.0538 4.53471 10.7609 3.94512 11.1821L2.27845 12.3725C1.16176 13.1702 1.16176 14.8298 2.27845 15.6275L3.94512 16.8179C4.53471 17.2391 4.85043 17.9462 4.77041 18.6663L4.47608 21.3153C4.33454 22.5891 5.41088 23.6655 6.68471 23.5239L9.33372 23.2296C10.0538 23.1496 10.7609 23.4653 11.1821 24.0549L12.3725 25.7215C13.1702 26.8382 14.8298 26.8382 15.6275 25.7215L16.8179 24.0549C17.2391 23.4653 17.9462 23.1496 18.6663 23.2296L21.3153 23.5239C22.5891 23.6655 23.6655 22.5891 23.5239 21.3153L23.2296 18.6663C23.1496 17.9462 23.4653 17.2391 24.0549 16.8179L25.7215 15.6275C26.8382 14.8298 26.8382 13.1702 25.7215 12.3725L24.0549 11.1821C23.4653 10.7609 23.1496 10.0538 23.2296 9.33373L23.5239 6.68471C23.6655 5.41088 22.5891 4.33454 21.3153 4.47608L18.6663 4.77041C17.9462 4.85043 17.2391 4.53471 16.8179 3.94512Z" stroke="#E66D33" stroke-width="2" stroke-linecap="round" stroke-linejoin="round"/>
</svg>
