<svg width="24" height="24" viewBox="0 0 24 24" fill="none" xmlns="http://www.w3.org/2000/svg">
<path d="M10.0781 16.7891L6.16406 12.8984C6.05469 12.7891 6 12.6484 6 12.4766C6 12.3047 6.05469 12.1641 6.16406 12.0547L7.03125 11.2109C7.14062 11.0859 7.27344 11.0234 7.42969 11.0234C7.60156 11.0234 7.75 11.0859 7.875 11.2109L10.5 13.8359L16.125 8.21094C16.25 8.08594 16.3906 8.02344 16.5469 8.02344C16.7188 8.02344 16.8594 8.08594 16.9688 8.21094L17.8359 9.05469C17.9453 9.16406 18 9.30469 18 9.47656C18 9.64844 17.9453 9.78906 17.8359 9.89844L10.9219 16.7891C10.8125 16.9141 10.6719 16.9766 10.5 16.9766C10.3281 16.9766 10.1875 16.9141 10.0781 16.7891Z" fill="white"/>
</svg>
